id_value;label_value;
157604;Lettre, général (avant 1198);  
160681;Privilège solennel;  
160682;Privilège mineur (avant 1198);  
160683;Mandement (littere cum filo canapis);  
160684;Lettre, général (après 1198, littere cum filo canapis);  
160685;Titre, général (littere gratiose, cum filo serico);  
160686;Titre, provisions de bénéfice (littere gratiose, cum filo serico);  
160687;Bulle (ad perpetuam rei memoriam);  
160688;Lettre secrète avignonnaise;  
160689;Bref secret ou de Curie;  
160690;Bref commun;  
160691;Bref ouvert (indulgences);  
160692;Bulle consistoriale;  
160693;Motu proprio;  
739572;Canon conciliaire;  
835371;Décrétale, autre texte de collection canonique;